^D:\VAR\CODE\PROJECT\ICE\DEMO_0.1\GENERATED\SERVER\DBOPERATOR.CPP
/c /I. /I.\generated\server /I"D:\usr\local\mysql-5.6.12\include" /Zi /nologo /W3 /WX /Od /Oy- /D _CONSOLE /D _DEBUG /D WIN32_LEAN_AND_MEAN /Gm /EHsc /RTC1 /MDd /GS /fp:precise /Zc:wchar_t /Zc:forScope /Fo"DEBUG\SERVER\\" /Fd"DEBUG\SERVER\VC110.PDB" /Gd /TP /analyze- D:\VAR\CODE\PROJECT\ICE\DEMO_0.1\GENERATED\SERVER\DBOPERATOR.CPP
^D:\VAR\CODE\PROJECT\ICE\DEMO_0.1\GENERATED\SERVER\PRINTER.CPP
/c /I. /I.\generated\server /I"D:\usr\local\mysql-5.6.12\include" /Zi /nologo /W3 /WX /Od /Oy- /D _CONSOLE /D _DEBUG /D WIN32_LEAN_AND_MEAN /Gm /EHsc /RTC1 /MDd /GS /fp:precise /Zc:wchar_t /Zc:forScope /Fo"DEBUG\SERVER\\" /Fd"DEBUG\SERVER\VC110.PDB" /Gd /TP /analyze- D:\VAR\CODE\PROJECT\ICE\DEMO_0.1\GENERATED\SERVER\PRINTER.CPP
^D:\VAR\CODE\PROJECT\ICE\DEMO_0.1\SERVER.CPP
/c /I. /I.\generated\server /I"D:\usr\local\mysql-5.6.12\include" /Zi /nologo /W3 /WX /Od /Oy- /D _CONSOLE /D _DEBUG /D WIN32_LEAN_AND_MEAN /Gm /EHsc /RTC1 /MDd /GS /fp:precise /Zc:wchar_t /Zc:forScope /Fo"DEBUG\SERVER\\" /Fd"DEBUG\SERVER\VC110.PDB" /Gd /TP /analyze- D:\VAR\CODE\PROJECT\ICE\DEMO_0.1\SERVER.CPP
