^D:\VAR\CODE\PROJECT\ICE\DEMO_0.1\GENERATED\CLIENT\PRINTER.CPP
D:\VAR\CODE\PROJECT\ICE\DEMO_0.1\GENERATED\CLIENT\PRINTER.H
D:\LIB\ZEROC\ICE-3.5.0\INCLUDE\ICE\PROXYF.H
D:\LIB\ZEROC\ICE-3.5.0\INCLUDE\ICEUTIL\SHARED.H
D:\LIB\ZEROC\ICE-3.5.0\INCLUDE\ICEUTIL\CONFIG.H
C:\PROGRAM FILES (X86)\WINDOWS KITS\8.0\INCLUDE\SHARED\WINAPIFAMILY.H
C:\PROGRAM FILES (X86)\WINDOWS KITS\8.0\INCLUDE\UM\WINDOWS.H
C:\PROGRAM FILES (X86)\WINDOWS KITS\8.0\INCLUDE\SHARED\SDKDDKVER.H
D:\USR\LOCAL\MICROSOFTVISUALSTUDIO11.0\VC\INCLUDE\EXCPT.H
D:\USR\LOCAL\MICROSOFTVISUALSTUDIO11.0\VC\INCLUDE\CRTDEFS.H
D:\USR\LOCAL\MICROSOFTVISUALSTUDIO11.0\VC\INCLUDE\SAL.H
D:\USR\LOCAL\MICROSOFTVISUALSTUDIO11.0\VC\INCLUDE\CONCURRENCYSAL.H
D:\USR\LOCAL\MICROSOFTVISUALSTUDIO11.0\VC\INCLUDE\VADEFS.H
D:\USR\LOCAL\MICROSOFTVISUALSTUDIO11.0\VC\INCLUDE\STDARG.H
C:\PROGRAM FILES (X86)\WINDOWS KITS\8.0\INCLUDE\SHARED\WINDEF.H
C:\PROGRAM FILES (X86)\WINDOWS KITS\8.0\INCLUDE\SHARED\MINWINDEF.H
C:\PROGRAM FILES (X86)\WINDOWS KITS\8.0\INCLUDE\SHARED\SPECSTRINGS.H
C:\PROGRAM FILES (X86)\WINDOWS KITS\8.0\INCLUDE\SHARED\SPECSTRINGS_STRICT.H
C:\PROGRAM FILES (X86)\WINDOWS KITS\8.0\INCLUDE\SHARED\SPECSTRINGS_UNDEF.H
C:\PROGRAM FILES (X86)\WINDOWS KITS\8.0\INCLUDE\SHARED\DRIVERSPECS.H
C:\PROGRAM FILES (X86)\WINDOWS KITS\8.0\INCLUDE\SHARED\SDV_DRIVERSPECS.H
C:\PROGRAM FILES (X86)\WINDOWS KITS\8.0\INCLUDE\UM\WINNT.H
D:\USR\LOCAL\MICROSOFTVISUALSTUDIO11.0\VC\INCLUDE\CTYPE.H
C:\PROGRAM FILES (X86)\WINDOWS KITS\8.0\INCLUDE\SHARED\KERNELSPECS.H
C:\PROGRAM FILES (X86)\WINDOWS KITS\8.0\INCLUDE\SHARED\BASETSD.H
C:\PROGRAM FILES (X86)\WINDOWS KITS\8.0\INCLUDE\SHARED\GUIDDEF.H
D:\USR\LOCAL\MICROSOFTVISUALSTUDIO11.0\VC\INCLUDE\STRING.H
C:\PROGRAM FILES (X86)\WINDOWS KITS\8.0\INCLUDE\SHARED\PSHPACK4.H
C:\PROGRAM FILES (X86)\WINDOWS KITS\8.0\INCLUDE\SHARED\POPPACK.H
C:\PROGRAM FILES (X86)\WINDOWS KITS\8.0\INCLUDE\SHARED\PSHPACK2.H
C:\PROGRAM FILES (X86)\WINDOWS KITS\8.0\INCLUDE\SHARED\PSHPACK8.H
C:\PROGRAM FILES (X86)\WINDOWS KITS\8.0\INCLUDE\SHARED\APISET.H
C:\PROGRAM FILES (X86)\WINDOWS KITS\8.0\INCLUDE\SHARED\KTMTYPES.H
C:\PROGRAM FILES (X86)\WINDOWS KITS\8.0\INCLUDE\UM\WINBASE.H
C:\PROGRAM FILES (X86)\WINDOWS KITS\8.0\INCLUDE\SHARED\APISETCCONV.H
C:\PROGRAM FILES (X86)\WINDOWS KITS\8.0\INCLUDE\UM\MINWINBASE.H
C:\PROGRAM FILES (X86)\WINDOWS KITS\8.0\INCLUDE\UM\PROCESSENV.H
C:\PROGRAM FILES (X86)\WINDOWS KITS\8.0\INCLUDE\UM\FILEAPI.H
C:\PROGRAM FILES (X86)\WINDOWS KITS\8.0\INCLUDE\UM\DEBUGAPI.H
C:\PROGRAM FILES (X86)\WINDOWS KITS\8.0\INCLUDE\UM\UTILAPISET.H
C:\PROGRAM FILES (X86)\WINDOWS KITS\8.0\INCLUDE\UM\HANDLEAPI.H
C:\PROGRAM FILES (X86)\WINDOWS KITS\8.0\INCLUDE\UM\ERRHANDLINGAPI.H
C:\PROGRAM FILES (X86)\WINDOWS KITS\8.0\INCLUDE\UM\FIBERSAPI.H
C:\PROGRAM FILES (X86)\WINDOWS KITS\8.0\INCLUDE\UM\NAMEDPIPEAPI.H
C:\PROGRAM FILES (X86)\WINDOWS KITS\8.0\INCLUDE\UM\PROFILEAPI.H
C:\PROGRAM FILES (X86)\WINDOWS KITS\8.0\INCLUDE\UM\HEAPAPI.H
C:\PROGRAM FILES (X86)\WINDOWS KITS\8.0\INCLUDE\UM\IOAPISET.H
C:\PROGRAM FILES (X86)\WINDOWS KITS\8.0\INCLUDE\UM\SYNCHAPI.H
C:\PROGRAM FILES (X86)\WINDOWS KITS\8.0\INCLUDE\UM\INTERLOCKEDAPI.H
C:\PROGRAM FILES (X86)\WINDOWS KITS\8.0\INCLUDE\UM\PROCESSTHREADSAPI.H
C:\PROGRAM FILES (X86)\WINDOWS KITS\8.0\INCLUDE\UM\SYSINFOAPI.H
C:\PROGRAM FILES (X86)\WINDOWS KITS\8.0\INCLUDE\UM\MEMORYAPI.H
C:\PROGRAM FILES (X86)\WINDOWS KITS\8.0\INCLUDE\UM\THREADPOOLLEGACYAPISET.H
C:\PROGRAM FILES (X86)\WINDOWS KITS\8.0\INCLUDE\UM\THREADPOOLAPISET.H
C:\PROGRAM FILES (X86)\WINDOWS KITS\8.0\INCLUDE\UM\BEMAPISET.H
C:\PROGRAM FILES (X86)\WINDOWS KITS\8.0\INCLUDE\UM\JOBAPI.H
C:\PROGRAM FILES (X86)\WINDOWS KITS\8.0\INCLUDE\UM\WOW64APISET.H
C:\PROGRAM FILES (X86)\WINDOWS KITS\8.0\INCLUDE\UM\LIBLOADERAPI.H
C:\PROGRAM FILES (X86)\WINDOWS KITS\8.0\INCLUDE\UM\SECURITYBASEAPI.H
C:\PROGRAM FILES (X86)\WINDOWS KITS\8.0\INCLUDE\UM\NAMESPACEAPI.H
C:\PROGRAM FILES (X86)\WINDOWS KITS\8.0\INCLUDE\UM\SYSTEMTOPOLOGYAPI.H
C:\PROGRAM FILES (X86)\WINDOWS KITS\8.0\INCLUDE\UM\PROCESSTOPOLOGYAPI.H
C:\PROGRAM FILES (X86)\WINDOWS KITS\8.0\INCLUDE\UM\SECURITYAPPCONTAINER.H
C:\PROGRAM FILES (X86)\WINDOWS KITS\8.0\INCLUDE\UM\REALTIMEAPISET.H
C:\PROGRAM FILES (X86)\WINDOWS KITS\8.0\INCLUDE\SHARED\WINERROR.H
C:\PROGRAM FILES (X86)\WINDOWS KITS\8.0\INCLUDE\UM\TIMEZONEAPI.H
C:\PROGRAM FILES (X86)\WINDOWS KITS\8.0\INCLUDE\UM\WINGDI.H
C:\PROGRAM FILES (X86)\WINDOWS KITS\8.0\INCLUDE\SHARED\PSHPACK1.H
C:\PROGRAM FILES (X86)\WINDOWS KITS\8.0\INCLUDE\UM\WINUSER.H
C:\PROGRAM FILES (X86)\WINDOWS KITS\8.0\INCLUDE\SHARED\TVOUT.H
C:\PROGRAM FILES (X86)\WINDOWS KITS\8.0\INCLUDE\UM\WINNLS.H
C:\PROGRAM FILES (X86)\WINDOWS KITS\8.0\INCLUDE\UM\DATETIMEAPI.H
C:\PROGRAM FILES (X86)\WINDOWS KITS\8.0\INCLUDE\UM\STRINGAPISET.H
C:\PROGRAM FILES (X86)\WINDOWS KITS\8.0\INCLUDE\UM\WINCON.H
C:\PROGRAM FILES (X86)\WINDOWS KITS\8.0\INCLUDE\UM\CONSOLEAPI.H
C:\PROGRAM FILES (X86)\WINDOWS KITS\8.0\INCLUDE\UM\WINVER.H
C:\PROGRAM FILES (X86)\WINDOWS KITS\8.0\INCLUDE\UM\VERRSRC.H
C:\PROGRAM FILES (X86)\WINDOWS KITS\8.0\INCLUDE\UM\WINREG.H
C:\PROGRAM FILES (X86)\WINDOWS KITS\8.0\INCLUDE\UM\REASON.H
C:\PROGRAM FILES (X86)\WINDOWS KITS\8.0\INCLUDE\UM\WINNETWK.H
C:\PROGRAM FILES (X86)\WINDOWS KITS\8.0\INCLUDE\SHARED\WNNC.H
C:\PROGRAM FILES (X86)\WINDOWS KITS\8.0\INCLUDE\SHARED\STRALIGN.H
C:\PROGRAM FILES (X86)\WINDOWS KITS\8.0\INCLUDE\UM\WINSVC.H
C:\PROGRAM FILES (X86)\WINDOWS KITS\8.0\INCLUDE\UM\MCX.H
C:\PROGRAM FILES (X86)\WINDOWS KITS\8.0\INCLUDE\UM\IMM.H
C:\PROGRAM FILES (X86)\WINDOWS KITS\8.0\INCLUDE\UM\IME_CMODES.H
D:\USR\LOCAL\MICROSOFTVISUALSTUDIO11.0\VC\INCLUDE\CASSERT
D:\USR\LOCAL\MICROSOFTVISUALSTUDIO11.0\VC\INCLUDE\YVALS.H
D:\USR\LOCAL\MICROSOFTVISUALSTUDIO11.0\VC\INCLUDE\XKEYCHECK.H
D:\USR\LOCAL\MICROSOFTVISUALSTUDIO11.0\VC\INCLUDE\USE_ANSI.H
D:\USR\LOCAL\MICROSOFTVISUALSTUDIO11.0\VC\INCLUDE\ASSERT.H
D:\USR\LOCAL\MICROSOFTVISUALSTUDIO11.0\VC\INCLUDE\IOSTREAM
D:\USR\LOCAL\MICROSOFTVISUALSTUDIO11.0\VC\INCLUDE\ISTREAM
D:\USR\LOCAL\MICROSOFTVISUALSTUDIO11.0\VC\INCLUDE\OSTREAM
D:\USR\LOCAL\MICROSOFTVISUALSTUDIO11.0\VC\INCLUDE\IOS
D:\USR\LOCAL\MICROSOFTVISUALSTUDIO11.0\VC\INCLUDE\XLOCNUM
D:\USR\LOCAL\MICROSOFTVISUALSTUDIO11.0\VC\INCLUDE\CLIMITS
D:\USR\LOCAL\MICROSOFTVISUALSTUDIO11.0\VC\INCLUDE\LIMITS.H
D:\USR\LOCAL\MICROSOFTVISUALSTUDIO11.0\VC\INCLUDE\CMATH
D:\USR\LOCAL\MICROSOFTVISUALSTUDIO11.0\VC\INCLUDE\MATH.H
D:\USR\LOCAL\MICROSOFTVISUALSTUDIO11.0\VC\INCLUDE\XTGMATH.H
D:\USR\LOCAL\MICROSOFTVISUALSTUDIO11.0\VC\INCLUDE\XTR1COMMON
D:\USR\LOCAL\MICROSOFTVISUALSTUDIO11.0\VC\INCLUDE\CSTDIO
D:\USR\LOCAL\MICROSOFTVISUALSTUDIO11.0\VC\INCLUDE\STDIO.H
D:\USR\LOCAL\MICROSOFTVISUALSTUDIO11.0\VC\INCLUDE\SWPRINTF.INL
D:\USR\LOCAL\MICROSOFTVISUALSTUDIO11.0\VC\INCLUDE\CSTDLIB
D:\USR\LOCAL\MICROSOFTVISUALSTUDIO11.0\VC\INCLUDE\STDLIB.H
D:\USR\LOCAL\MICROSOFTVISUALSTUDIO11.0\VC\INCLUDE\STREAMBUF
D:\USR\LOCAL\MICROSOFTVISUALSTUDIO11.0\VC\INCLUDE\XIOSBASE
D:\USR\LOCAL\MICROSOFTVISUALSTUDIO11.0\VC\INCLUDE\XLOCALE
D:\USR\LOCAL\MICROSOFTVISUALSTUDIO11.0\VC\INCLUDE\CSTRING
D:\USR\LOCAL\MICROSOFTVISUALSTUDIO11.0\VC\INCLUDE\STDEXCEPT
D:\USR\LOCAL\MICROSOFTVISUALSTUDIO11.0\VC\INCLUDE\EXCEPTION
D:\USR\LOCAL\MICROSOFTVISUALSTUDIO11.0\VC\INCLUDE\XSTDDEF
D:\USR\LOCAL\MICROSOFTVISUALSTUDIO11.0\VC\INCLUDE\CSTDDEF
D:\USR\LOCAL\MICROSOFTVISUALSTUDIO11.0\VC\INCLUDE\STDDEF.H
D:\USR\LOCAL\MICROSOFTVISUALSTUDIO11.0\VC\INCLUDE\EH.H
D:\USR\LOCAL\MICROSOFTVISUALSTUDIO11.0\VC\INCLUDE\MALLOC.H
D:\USR\LOCAL\MICROSOFTVISUALSTUDIO11.0\VC\INCLUDE\XSTRING
D:\USR\LOCAL\MICROSOFTVISUALSTUDIO11.0\VC\INCLUDE\XMEMORY0
D:\USR\LOCAL\MICROSOFTVISUALSTUDIO11.0\VC\INCLUDE\LIMITS
D:\USR\LOCAL\MICROSOFTVISUALSTUDIO11.0\VC\INCLUDE\YMATH.H
D:\USR\LOCAL\MICROSOFTVISUALSTUDIO11.0\VC\INCLUDE\CFLOAT
D:\USR\LOCAL\MICROSOFTVISUALSTUDIO11.0\VC\INCLUDE\FLOAT.H
D:\USR\LOCAL\MICROSOFTVISUALSTUDIO11.0\VC\INCLUDE\CRTWRN.H
D:\USR\LOCAL\MICROSOFTVISUALSTUDIO11.0\VC\INCLUDE\CWCHAR
D:\USR\LOCAL\MICROSOFTVISUALSTUDIO11.0\VC\INCLUDE\WCHAR.H
D:\USR\LOCAL\MICROSOFTVISUALSTUDIO11.0\VC\INCLUDE\WTIME.INL
D:\USR\LOCAL\MICROSOFTVISUALSTUDIO11.0\VC\INCLUDE\NEW
D:\USR\LOCAL\MICROSOFTVISUALSTUDIO11.0\VC\INCLUDE\XUTILITY
D:\USR\LOCAL\MICROSOFTVISUALSTUDIO11.0\VC\INCLUDE\UTILITY
D:\USR\LOCAL\MICROSOFTVISUALSTUDIO11.0\VC\INCLUDE\IOSFWD
D:\USR\LOCAL\MICROSOFTVISUALSTUDIO11.0\VC\INCLUDE\CRTDBG.H
D:\USR\LOCAL\MICROSOFTVISUALSTUDIO11.0\VC\INCLUDE\TYPE_TRAITS
D:\USR\LOCAL\MICROSOFTVISUALSTUDIO11.0\VC\INCLUDE\XREFWRAP
D:\USR\LOCAL\MICROSOFTVISUALSTUDIO11.0\VC\INCLUDE\XATOMIC0.H
D:\USR\LOCAL\MICROSOFTVISUALSTUDIO11.0\VC\INCLUDE\INTRIN.H
D:\USR\LOCAL\MICROSOFTVISUALSTUDIO11.0\VC\INCLUDE\SETJMP.H
D:\USR\LOCAL\MICROSOFTVISUALSTUDIO11.0\VC\INCLUDE\IMMINTRIN.H
D:\USR\LOCAL\MICROSOFTVISUALSTUDIO11.0\VC\INCLUDE\WMMINTRIN.H
D:\USR\LOCAL\MICROSOFTVISUALSTUDIO11.0\VC\INCLUDE\NMMINTRIN.H
D:\USR\LOCAL\MICROSOFTVISUALSTUDIO11.0\VC\INCLUDE\SMMINTRIN.H
D:\USR\LOCAL\MICROSOFTVISUALSTUDIO11.0\VC\INCLUDE\TMMINTRIN.H
D:\USR\LOCAL\MICROSOFTVISUALSTUDIO11.0\VC\INCLUDE\PMMINTRIN.H
D:\USR\LOCAL\MICROSOFTVISUALSTUDIO11.0\VC\INCLUDE\EMMINTRIN.H
D:\USR\LOCAL\MICROSOFTVISUALSTUDIO11.0\VC\INCLUDE\XMMINTRIN.H
D:\USR\LOCAL\MICROSOFTVISUALSTUDIO11.0\VC\INCLUDE\MMINTRIN.H
D:\USR\LOCAL\MICROSOFTVISUALSTUDIO11.0\VC\INCLUDE\AMMINTRIN.H
D:\USR\LOCAL\MICROSOFTVISUALSTUDIO11.0\VC\INCLUDE\MM3DNOW.H
D:\USR\LOCAL\MICROSOFTVISUALSTUDIO11.0\VC\INCLUDE\TYPEINFO
D:\USR\LOCAL\MICROSOFTVISUALSTUDIO11.0\VC\INCLUDE\XLOCINFO
D:\USR\LOCAL\MICROSOFTVISUALSTUDIO11.0\VC\INCLUDE\XLOCINFO.H
D:\USR\LOCAL\MICROSOFTVISUALSTUDIO11.0\VC\INCLUDE\LOCALE.H
D:\USR\LOCAL\MICROSOFTVISUALSTUDIO11.0\VC\INCLUDE\XDEBUG
D:\USR\LOCAL\MICROSOFTVISUALSTUDIO11.0\VC\INCLUDE\XMEMORY
D:\USR\LOCAL\MICROSOFTVISUALSTUDIO11.0\VC\INCLUDE\XFACET
D:\USR\LOCAL\MICROSOFTVISUALSTUDIO11.0\VC\INCLUDE\SYSTEM_ERROR
D:\USR\LOCAL\MICROSOFTVISUALSTUDIO11.0\VC\INCLUDE\CERRNO
D:\USR\LOCAL\MICROSOFTVISUALSTUDIO11.0\VC\INCLUDE\ERRNO.H
D:\USR\LOCAL\MICROSOFTVISUALSTUDIO11.0\VC\INCLUDE\SHARE.H
D:\USR\LOCAL\MICROSOFTVISUALSTUDIO11.0\VC\INCLUDE\SSTREAM
D:\USR\LOCAL\MICROSOFTVISUALSTUDIO11.0\VC\INCLUDE\STRING
D:\USR\LOCAL\MICROSOFTVISUALSTUDIO11.0\VC\INCLUDE\ITERATOR
D:\LIB\ZEROC\ICE-3.5.0\INCLUDE\ICE\CONFIG.H
D:\USR\LOCAL\MICROSOFTVISUALSTUDIO11.0\VC\INCLUDE\VECTOR
D:\USR\LOCAL\MICROSOFTVISUALSTUDIO11.0\VC\INCLUDE\MAP
D:\USR\LOCAL\MICROSOFTVISUALSTUDIO11.0\VC\INCLUDE\XTREE
D:\USR\LOCAL\MICROSOFTVISUALSTUDIO11.0\VC\INCLUDE\PROCESS.H
D:\LIB\ZEROC\ICE-3.5.0\INCLUDE\ICE\PROXYHANDLE.H
D:\LIB\ZEROC\ICE-3.5.0\INCLUDE\ICEUTIL\HANDLE.H
D:\LIB\ZEROC\ICE-3.5.0\INCLUDE\ICEUTIL\EXCEPTION.H
D:\USR\LOCAL\MICROSOFTVISUALSTUDIO11.0\VC\INCLUDE\ALGORITHM
D:\LIB\ZEROC\ICE-3.5.0\INCLUDE\ICE\OBJECTF.H
D:\LIB\ZEROC\ICE-3.5.0\INCLUDE\ICE\HANDLE.H
D:\LIB\ZEROC\ICE-3.5.0\INCLUDE\ICE\EXCEPTION.H
D:\LIB\ZEROC\ICE-3.5.0\INCLUDE\ICE\FORMAT.H
D:\LIB\ZEROC\ICE-3.5.0\INCLUDE\ICE\STREAMF.H
D:\LIB\ZEROC\ICE-3.5.0\INCLUDE\ICE\LOCALOBJECT.H
D:\LIB\ZEROC\ICE-3.5.0\INCLUDE\ICE\LOCALOBJECTF.H
D:\LIB\ZEROC\ICE-3.5.0\INCLUDE\ICE\STREAMHELPERS.H
D:\LIB\ZEROC\ICE-3.5.0\INCLUDE\ICEUTIL\SCOPEDARRAY.H
D:\LIB\ZEROC\ICE-3.5.0\INCLUDE\ICEUTIL\ITERATOR.H
D:\LIB\ZEROC\ICE-3.5.0\INCLUDE\ICE\PROXY.H
D:\LIB\ZEROC\ICE-3.5.0\INCLUDE\ICEUTIL\MUTEX.H
D:\LIB\ZEROC\ICE-3.5.0\INCLUDE\ICEUTIL\LOCK.H
D:\LIB\ZEROC\ICE-3.5.0\INCLUDE\ICEUTIL\THREADEXCEPTION.H
D:\LIB\ZEROC\ICE-3.5.0\INCLUDE\ICEUTIL\TIME.H
D:\LIB\ZEROC\ICE-3.5.0\INCLUDE\ICEUTIL\MUTEXPROTOCOL.H
D:\LIB\ZEROC\ICE-3.5.0\INCLUDE\ICE\PROXYFACTORYF.H
D:\LIB\ZEROC\ICE-3.5.0\INCLUDE\ICE\CONNECTIONIF.H
D:\LIB\ZEROC\ICE-3.5.0\INCLUDE\ICE\REQUESTHANDLERF.H
D:\LIB\ZEROC\ICE-3.5.0\INCLUDE\ICE\ENDPOINTIF.H
D:\LIB\ZEROC\ICE-3.5.0\INCLUDE\ICE\ENDPOINTF.H
D:\LIB\ZEROC\ICE-3.5.0\INCLUDE\ICEUTIL\OPTIONAL.H
D:\LIB\ZEROC\ICE-3.5.0\INCLUDE\ICE\UNDEFSYSMACROS.H
D:\LIB\ZEROC\ICE-3.5.0\INCLUDE\ICE\ENDPOINTTYPES.H
D:\LIB\ZEROC\ICE-3.5.0\INCLUDE\ICE\OBJECTADAPTERF.H
D:\LIB\ZEROC\ICE-3.5.0\INCLUDE\ICE\REFERENCEF.H
D:\LIB\ZEROC\ICE-3.5.0\INCLUDE\ICE\OUTGOINGASYNC.H
D:\LIB\ZEROC\ICE-3.5.0\INCLUDE\ICEUTIL\MONITOR.H
D:\LIB\ZEROC\ICE-3.5.0\INCLUDE\ICEUTIL\COND.H
D:\LIB\ZEROC\ICE-3.5.0\INCLUDE\ICEUTIL\TIMER.H
D:\LIB\ZEROC\ICE-3.5.0\INCLUDE\ICEUTIL\THREAD.H
D:\USR\LOCAL\MICROSOFTVISUALSTUDIO11.0\VC\INCLUDE\SET
D:\LIB\ZEROC\ICE-3.5.0\INCLUDE\ICEUTIL\UNIQUEPTR.H
D:\LIB\ZEROC\ICE-3.5.0\INCLUDE\ICE\OUTGOINGASYNCF.H
D:\LIB\ZEROC\ICE-3.5.0\INCLUDE\ICE\INSTANCEF.H
D:\LIB\ZEROC\ICE-3.5.0\INCLUDE\ICE\COMMUNICATORF.H
D:\LIB\ZEROC\ICE-3.5.0\INCLUDE\ICE\CURRENT.H
D:\LIB\ZEROC\ICE-3.5.0\INCLUDE\ICE\CONNECTIONF.H
D:\LIB\ZEROC\ICE-3.5.0\INCLUDE\ICE\IDENTITY.H
D:\LIB\ZEROC\ICE-3.5.0\INCLUDE\ICE\VERSION.H
D:\LIB\ZEROC\ICE-3.5.0\INCLUDE\ICE\BASICSTREAM.H
D:\LIB\ZEROC\ICE-3.5.0\INCLUDE\ICE\OBJECT.H
D:\LIB\ZEROC\ICE-3.5.0\INCLUDE\ICE\GCSHARED.H
D:\LIB\ZEROC\ICE-3.5.0\INCLUDE\ICE\GCCOUNTMAP.H
D:\LIB\ZEROC\ICE-3.5.0\INCLUDE\ICE\INCOMINGASYNCF.H
D:\LIB\ZEROC\ICE-3.5.0\INCLUDE\ICE\OBJECTFACTORYF.H
D:\LIB\ZEROC\ICE-3.5.0\INCLUDE\ICE\OBJECTFACTORYMANAGERF.H
D:\LIB\ZEROC\ICE-3.5.0\INCLUDE\ICE\BUFFER.H
D:\LIB\ZEROC\ICE-3.5.0\INCLUDE\ICE\PROTOCOL.H
D:\LIB\ZEROC\ICE-3.5.0\INCLUDE\ICE\SLICEDDATAF.H
D:\LIB\ZEROC\ICE-3.5.0\INCLUDE\ICE\USEREXCEPTIONFACTORY.H
D:\LIB\ZEROC\ICE-3.5.0\INCLUDE\ICE\FACTORYTABLE.H
D:\LIB\ZEROC\ICE-3.5.0\INCLUDE\ICE\OBSERVERHELPER.H
D:\LIB\ZEROC\ICE-3.5.0\INCLUDE\ICE\INSTRUMENTATION.H
D:\USR\LOCAL\MICROSOFTVISUALSTUDIO11.0\VC\INCLUDE\FUNCTIONAL
D:\USR\LOCAL\MICROSOFTVISUALSTUDIO11.0\VC\INCLUDE\XFUNCTIONAL
D:\USR\LOCAL\MICROSOFTVISUALSTUDIO11.0\VC\INCLUDE\TUPLE
D:\LIB\ZEROC\ICE-3.5.0\INCLUDE\ICE\OUTGOING.H
D:\LIB\ZEROC\ICE-3.5.0\INCLUDE\ICE\INCOMING.H
D:\LIB\ZEROC\ICE-3.5.0\INCLUDE\ICE\SERVANTLOCATORF.H
D:\LIB\ZEROC\ICE-3.5.0\INCLUDE\ICE\SERVANTMANAGERF.H
D:\USR\LOCAL\MICROSOFTVISUALSTUDIO11.0\VC\INCLUDE\DEQUE
D:\LIB\ZEROC\ICE-3.5.0\INCLUDE\ICE\DIRECT.H
D:\LIB\ZEROC\ICE-3.5.0\INCLUDE\ICE\LOCALEXCEPTION.H
D:\LIB\ZEROC\ICE-3.5.0\INCLUDE\ICE\BUILTINSEQUENCES.H
D:\LIB\ZEROC\ICE-3.5.0\INCLUDE\ICE\OBJECTFACTORY.H
^D:\VAR\CODE\PROJECT\ICE\DEMO_0.1\CLIENT.CPP
D:\LIB\ZEROC\ICE-3.5.0\INCLUDE\ICE\ICE.H
D:\LIB\ZEROC\ICE-3.5.0\INCLUDE\ICEUTIL\CONFIG.H
C:\PROGRAM FILES (X86)\WINDOWS KITS\8.0\INCLUDE\SHARED\WINAPIFAMILY.H
C:\PROGRAM FILES (X86)\WINDOWS KITS\8.0\INCLUDE\UM\WINDOWS.H
C:\PROGRAM FILES (X86)\WINDOWS KITS\8.0\INCLUDE\SHARED\SDKDDKVER.H
D:\USR\LOCAL\MICROSOFTVISUALSTUDIO11.0\VC\INCLUDE\EXCPT.H
D:\USR\LOCAL\MICROSOFTVISUALSTUDIO11.0\VC\INCLUDE\CRTDEFS.H
D:\USR\LOCAL\MICROSOFTVISUALSTUDIO11.0\VC\INCLUDE\SAL.H
D:\USR\LOCAL\MICROSOFTVISUALSTUDIO11.0\VC\INCLUDE\CONCURRENCYSAL.H
D:\USR\LOCAL\MICROSOFTVISUALSTUDIO11.0\VC\INCLUDE\VADEFS.H
D:\USR\LOCAL\MICROSOFTVISUALSTUDIO11.0\VC\INCLUDE\STDARG.H
C:\PROGRAM FILES (X86)\WINDOWS KITS\8.0\INCLUDE\SHARED\WINDEF.H
C:\PROGRAM FILES (X86)\WINDOWS KITS\8.0\INCLUDE\SHARED\MINWINDEF.H
C:\PROGRAM FILES (X86)\WINDOWS KITS\8.0\INCLUDE\SHARED\SPECSTRINGS.H
C:\PROGRAM FILES (X86)\WINDOWS KITS\8.0\INCLUDE\SHARED\SPECSTRINGS_STRICT.H
C:\PROGRAM FILES (X86)\WINDOWS KITS\8.0\INCLUDE\SHARED\SPECSTRINGS_UNDEF.H
C:\PROGRAM FILES (X86)\WINDOWS KITS\8.0\INCLUDE\SHARED\DRIVERSPECS.H
C:\PROGRAM FILES (X86)\WINDOWS KITS\8.0\INCLUDE\SHARED\SDV_DRIVERSPECS.H
C:\PROGRAM FILES (X86)\WINDOWS KITS\8.0\INCLUDE\UM\WINNT.H
D:\USR\LOCAL\MICROSOFTVISUALSTUDIO11.0\VC\INCLUDE\CTYPE.H
C:\PROGRAM FILES (X86)\WINDOWS KITS\8.0\INCLUDE\SHARED\KERNELSPECS.H
C:\PROGRAM FILES (X86)\WINDOWS KITS\8.0\INCLUDE\SHARED\BASETSD.H
C:\PROGRAM FILES (X86)\WINDOWS KITS\8.0\INCLUDE\SHARED\GUIDDEF.H
D:\USR\LOCAL\MICROSOFTVISUALSTUDIO11.0\VC\INCLUDE\STRING.H
C:\PROGRAM FILES (X86)\WINDOWS KITS\8.0\INCLUDE\SHARED\PSHPACK4.H
C:\PROGRAM FILES (X86)\WINDOWS KITS\8.0\INCLUDE\SHARED\POPPACK.H
C:\PROGRAM FILES (X86)\WINDOWS KITS\8.0\INCLUDE\SHARED\PSHPACK2.H
C:\PROGRAM FILES (X86)\WINDOWS KITS\8.0\INCLUDE\SHARED\PSHPACK8.H
C:\PROGRAM FILES (X86)\WINDOWS KITS\8.0\INCLUDE\SHARED\APISET.H
C:\PROGRAM FILES (X86)\WINDOWS KITS\8.0\INCLUDE\SHARED\KTMTYPES.H
C:\PROGRAM FILES (X86)\WINDOWS KITS\8.0\INCLUDE\UM\WINBASE.H
C:\PROGRAM FILES (X86)\WINDOWS KITS\8.0\INCLUDE\SHARED\APISETCCONV.H
C:\PROGRAM FILES (X86)\WINDOWS KITS\8.0\INCLUDE\UM\MINWINBASE.H
C:\PROGRAM FILES (X86)\WINDOWS KITS\8.0\INCLUDE\UM\PROCESSENV.H
C:\PROGRAM FILES (X86)\WINDOWS KITS\8.0\INCLUDE\UM\FILEAPI.H
C:\PROGRAM FILES (X86)\WINDOWS KITS\8.0\INCLUDE\UM\DEBUGAPI.H
C:\PROGRAM FILES (X86)\WINDOWS KITS\8.0\INCLUDE\UM\UTILAPISET.H
C:\PROGRAM FILES (X86)\WINDOWS KITS\8.0\INCLUDE\UM\HANDLEAPI.H
C:\PROGRAM FILES (X86)\WINDOWS KITS\8.0\INCLUDE\UM\ERRHANDLINGAPI.H
C:\PROGRAM FILES (X86)\WINDOWS KITS\8.0\INCLUDE\UM\FIBERSAPI.H
C:\PROGRAM FILES (X86)\WINDOWS KITS\8.0\INCLUDE\UM\NAMEDPIPEAPI.H
C:\PROGRAM FILES (X86)\WINDOWS KITS\8.0\INCLUDE\UM\PROFILEAPI.H
C:\PROGRAM FILES (X86)\WINDOWS KITS\8.0\INCLUDE\UM\HEAPAPI.H
C:\PROGRAM FILES (X86)\WINDOWS KITS\8.0\INCLUDE\UM\IOAPISET.H
C:\PROGRAM FILES (X86)\WINDOWS KITS\8.0\INCLUDE\UM\SYNCHAPI.H
C:\PROGRAM FILES (X86)\WINDOWS KITS\8.0\INCLUDE\UM\INTERLOCKEDAPI.H
C:\PROGRAM FILES (X86)\WINDOWS KITS\8.0\INCLUDE\UM\PROCESSTHREADSAPI.H
C:\PROGRAM FILES (X86)\WINDOWS KITS\8.0\INCLUDE\UM\SYSINFOAPI.H
C:\PROGRAM FILES (X86)\WINDOWS KITS\8.0\INCLUDE\UM\MEMORYAPI.H
C:\PROGRAM FILES (X86)\WINDOWS KITS\8.0\INCLUDE\UM\THREADPOOLLEGACYAPISET.H
C:\PROGRAM FILES (X86)\WINDOWS KITS\8.0\INCLUDE\UM\THREADPOOLAPISET.H
C:\PROGRAM FILES (X86)\WINDOWS KITS\8.0\INCLUDE\UM\BEMAPISET.H
C:\PROGRAM FILES (X86)\WINDOWS KITS\8.0\INCLUDE\UM\JOBAPI.H
C:\PROGRAM FILES (X86)\WINDOWS KITS\8.0\INCLUDE\UM\WOW64APISET.H
C:\PROGRAM FILES (X86)\WINDOWS KITS\8.0\INCLUDE\UM\LIBLOADERAPI.H
C:\PROGRAM FILES (X86)\WINDOWS KITS\8.0\INCLUDE\UM\SECURITYBASEAPI.H
C:\PROGRAM FILES (X86)\WINDOWS KITS\8.0\INCLUDE\UM\NAMESPACEAPI.H
C:\PROGRAM FILES (X86)\WINDOWS KITS\8.0\INCLUDE\UM\SYSTEMTOPOLOGYAPI.H
C:\PROGRAM FILES (X86)\WINDOWS KITS\8.0\INCLUDE\UM\PROCESSTOPOLOGYAPI.H
C:\PROGRAM FILES (X86)\WINDOWS KITS\8.0\INCLUDE\UM\SECURITYAPPCONTAINER.H
C:\PROGRAM FILES (X86)\WINDOWS KITS\8.0\INCLUDE\UM\REALTIMEAPISET.H
C:\PROGRAM FILES (X86)\WINDOWS KITS\8.0\INCLUDE\SHARED\WINERROR.H
C:\PROGRAM FILES (X86)\WINDOWS KITS\8.0\INCLUDE\UM\TIMEZONEAPI.H
C:\PROGRAM FILES (X86)\WINDOWS KITS\8.0\INCLUDE\UM\WINGDI.H
C:\PROGRAM FILES (X86)\WINDOWS KITS\8.0\INCLUDE\SHARED\PSHPACK1.H
C:\PROGRAM FILES (X86)\WINDOWS KITS\8.0\INCLUDE\UM\WINUSER.H
C:\PROGRAM FILES (X86)\WINDOWS KITS\8.0\INCLUDE\SHARED\TVOUT.H
C:\PROGRAM FILES (X86)\WINDOWS KITS\8.0\INCLUDE\UM\WINNLS.H
C:\PROGRAM FILES (X86)\WINDOWS KITS\8.0\INCLUDE\UM\DATETIMEAPI.H
C:\PROGRAM FILES (X86)\WINDOWS KITS\8.0\INCLUDE\UM\STRINGAPISET.H
C:\PROGRAM FILES (X86)\WINDOWS KITS\8.0\INCLUDE\UM\WINCON.H
C:\PROGRAM FILES (X86)\WINDOWS KITS\8.0\INCLUDE\UM\CONSOLEAPI.H
C:\PROGRAM FILES (X86)\WINDOWS KITS\8.0\INCLUDE\UM\WINVER.H
C:\PROGRAM FILES (X86)\WINDOWS KITS\8.0\INCLUDE\UM\VERRSRC.H
C:\PROGRAM FILES (X86)\WINDOWS KITS\8.0\INCLUDE\UM\WINREG.H
C:\PROGRAM FILES (X86)\WINDOWS KITS\8.0\INCLUDE\UM\REASON.H
C:\PROGRAM FILES (X86)\WINDOWS KITS\8.0\INCLUDE\UM\WINNETWK.H
C:\PROGRAM FILES (X86)\WINDOWS KITS\8.0\INCLUDE\SHARED\WNNC.H
C:\PROGRAM FILES (X86)\WINDOWS KITS\8.0\INCLUDE\SHARED\STRALIGN.H
C:\PROGRAM FILES (X86)\WINDOWS KITS\8.0\INCLUDE\UM\WINSVC.H
C:\PROGRAM FILES (X86)\WINDOWS KITS\8.0\INCLUDE\UM\MCX.H
C:\PROGRAM FILES (X86)\WINDOWS KITS\8.0\INCLUDE\UM\IMM.H
C:\PROGRAM FILES (X86)\WINDOWS KITS\8.0\INCLUDE\UM\IME_CMODES.H
D:\USR\LOCAL\MICROSOFTVISUALSTUDIO11.0\VC\INCLUDE\CASSERT
D:\USR\LOCAL\MICROSOFTVISUALSTUDIO11.0\VC\INCLUDE\YVALS.H
D:\USR\LOCAL\MICROSOFTVISUALSTUDIO11.0\VC\INCLUDE\XKEYCHECK.H
D:\USR\LOCAL\MICROSOFTVISUALSTUDIO11.0\VC\INCLUDE\USE_ANSI.H
D:\USR\LOCAL\MICROSOFTVISUALSTUDIO11.0\VC\INCLUDE\ASSERT.H
D:\USR\LOCAL\MICROSOFTVISUALSTUDIO11.0\VC\INCLUDE\IOSTREAM
D:\USR\LOCAL\MICROSOFTVISUALSTUDIO11.0\VC\INCLUDE\ISTREAM
D:\USR\LOCAL\MICROSOFTVISUALSTUDIO11.0\VC\INCLUDE\OSTREAM
D:\USR\LOCAL\MICROSOFTVISUALSTUDIO11.0\VC\INCLUDE\IOS
D:\USR\LOCAL\MICROSOFTVISUALSTUDIO11.0\VC\INCLUDE\XLOCNUM
D:\USR\LOCAL\MICROSOFTVISUALSTUDIO11.0\VC\INCLUDE\CLIMITS
D:\USR\LOCAL\MICROSOFTVISUALSTUDIO11.0\VC\INCLUDE\LIMITS.H
D:\USR\LOCAL\MICROSOFTVISUALSTUDIO11.0\VC\INCLUDE\CMATH
D:\USR\LOCAL\MICROSOFTVISUALSTUDIO11.0\VC\INCLUDE\MATH.H
D:\USR\LOCAL\MICROSOFTVISUALSTUDIO11.0\VC\INCLUDE\XTGMATH.H
D:\USR\LOCAL\MICROSOFTVISUALSTUDIO11.0\VC\INCLUDE\XTR1COMMON
D:\USR\LOCAL\MICROSOFTVISUALSTUDIO11.0\VC\INCLUDE\CSTDIO
D:\USR\LOCAL\MICROSOFTVISUALSTUDIO11.0\VC\INCLUDE\STDIO.H
D:\USR\LOCAL\MICROSOFTVISUALSTUDIO11.0\VC\INCLUDE\SWPRINTF.INL
D:\USR\LOCAL\MICROSOFTVISUALSTUDIO11.0\VC\INCLUDE\CSTDLIB
D:\USR\LOCAL\MICROSOFTVISUALSTUDIO11.0\VC\INCLUDE\STDLIB.H
D:\USR\LOCAL\MICROSOFTVISUALSTUDIO11.0\VC\INCLUDE\STREAMBUF
D:\USR\LOCAL\MICROSOFTVISUALSTUDIO11.0\VC\INCLUDE\XIOSBASE
D:\USR\LOCAL\MICROSOFTVISUALSTUDIO11.0\VC\INCLUDE\XLOCALE
D:\USR\LOCAL\MICROSOFTVISUALSTUDIO11.0\VC\INCLUDE\CSTRING
D:\USR\LOCAL\MICROSOFTVISUALSTUDIO11.0\VC\INCLUDE\STDEXCEPT
D:\USR\LOCAL\MICROSOFTVISUALSTUDIO11.0\VC\INCLUDE\EXCEPTION
D:\USR\LOCAL\MICROSOFTVISUALSTUDIO11.0\VC\INCLUDE\XSTDDEF
D:\USR\LOCAL\MICROSOFTVISUALSTUDIO11.0\VC\INCLUDE\CSTDDEF
D:\USR\LOCAL\MICROSOFTVISUALSTUDIO11.0\VC\INCLUDE\STDDEF.H
D:\USR\LOCAL\MICROSOFTVISUALSTUDIO11.0\VC\INCLUDE\EH.H
D:\USR\LOCAL\MICROSOFTVISUALSTUDIO11.0\VC\INCLUDE\MALLOC.H
D:\USR\LOCAL\MICROSOFTVISUALSTUDIO11.0\VC\INCLUDE\XSTRING
D:\USR\LOCAL\MICROSOFTVISUALSTUDIO11.0\VC\INCLUDE\XMEMORY0
D:\USR\LOCAL\MICROSOFTVISUALSTUDIO11.0\VC\INCLUDE\LIMITS
D:\USR\LOCAL\MICROSOFTVISUALSTUDIO11.0\VC\INCLUDE\YMATH.H
D:\USR\LOCAL\MICROSOFTVISUALSTUDIO11.0\VC\INCLUDE\CFLOAT
D:\USR\LOCAL\MICROSOFTVISUALSTUDIO11.0\VC\INCLUDE\FLOAT.H
D:\USR\LOCAL\MICROSOFTVISUALSTUDIO11.0\VC\INCLUDE\CRTWRN.H
D:\USR\LOCAL\MICROSOFTVISUALSTUDIO11.0\VC\INCLUDE\CWCHAR
D:\USR\LOCAL\MICROSOFTVISUALSTUDIO11.0\VC\INCLUDE\WCHAR.H
D:\USR\LOCAL\MICROSOFTVISUALSTUDIO11.0\VC\INCLUDE\WTIME.INL
D:\USR\LOCAL\MICROSOFTVISUALSTUDIO11.0\VC\INCLUDE\NEW
D:\USR\LOCAL\MICROSOFTVISUALSTUDIO11.0\VC\INCLUDE\XUTILITY
D:\USR\LOCAL\MICROSOFTVISUALSTUDIO11.0\VC\INCLUDE\UTILITY
D:\USR\LOCAL\MICROSOFTVISUALSTUDIO11.0\VC\INCLUDE\IOSFWD
D:\USR\LOCAL\MICROSOFTVISUALSTUDIO11.0\VC\INCLUDE\CRTDBG.H
D:\USR\LOCAL\MICROSOFTVISUALSTUDIO11.0\VC\INCLUDE\TYPE_TRAITS
D:\USR\LOCAL\MICROSOFTVISUALSTUDIO11.0\VC\INCLUDE\XREFWRAP
D:\USR\LOCAL\MICROSOFTVISUALSTUDIO11.0\VC\INCLUDE\XATOMIC0.H
D:\USR\LOCAL\MICROSOFTVISUALSTUDIO11.0\VC\INCLUDE\INTRIN.H
D:\USR\LOCAL\MICROSOFTVISUALSTUDIO11.0\VC\INCLUDE\SETJMP.H
D:\USR\LOCAL\MICROSOFTVISUALSTUDIO11.0\VC\INCLUDE\IMMINTRIN.H
D:\USR\LOCAL\MICROSOFTVISUALSTUDIO11.0\VC\INCLUDE\WMMINTRIN.H
D:\USR\LOCAL\MICROSOFTVISUALSTUDIO11.0\VC\INCLUDE\NMMINTRIN.H
D:\USR\LOCAL\MICROSOFTVISUALSTUDIO11.0\VC\INCLUDE\SMMINTRIN.H
D:\USR\LOCAL\MICROSOFTVISUALSTUDIO11.0\VC\INCLUDE\TMMINTRIN.H
D:\USR\LOCAL\MICROSOFTVISUALSTUDIO11.0\VC\INCLUDE\PMMINTRIN.H
D:\USR\LOCAL\MICROSOFTVISUALSTUDIO11.0\VC\INCLUDE\EMMINTRIN.H
D:\USR\LOCAL\MICROSOFTVISUALSTUDIO11.0\VC\INCLUDE\XMMINTRIN.H
D:\USR\LOCAL\MICROSOFTVISUALSTUDIO11.0\VC\INCLUDE\MMINTRIN.H
D:\USR\LOCAL\MICROSOFTVISUALSTUDIO11.0\VC\INCLUDE\AMMINTRIN.H
D:\USR\LOCAL\MICROSOFTVISUALSTUDIO11.0\VC\INCLUDE\MM3DNOW.H
D:\USR\LOCAL\MICROSOFTVISUALSTUDIO11.0\VC\INCLUDE\TYPEINFO
D:\USR\LOCAL\MICROSOFTVISUALSTUDIO11.0\VC\INCLUDE\XLOCINFO
D:\USR\LOCAL\MICROSOFTVISUALSTUDIO11.0\VC\INCLUDE\XLOCINFO.H
D:\USR\LOCAL\MICROSOFTVISUALSTUDIO11.0\VC\INCLUDE\LOCALE.H
D:\USR\LOCAL\MICROSOFTVISUALSTUDIO11.0\VC\INCLUDE\XDEBUG
D:\USR\LOCAL\MICROSOFTVISUALSTUDIO11.0\VC\INCLUDE\XMEMORY
D:\USR\LOCAL\MICROSOFTVISUALSTUDIO11.0\VC\INCLUDE\XFACET
D:\USR\LOCAL\MICROSOFTVISUALSTUDIO11.0\VC\INCLUDE\SYSTEM_ERROR
D:\USR\LOCAL\MICROSOFTVISUALSTUDIO11.0\VC\INCLUDE\CERRNO
D:\USR\LOCAL\MICROSOFTVISUALSTUDIO11.0\VC\INCLUDE\ERRNO.H
D:\USR\LOCAL\MICROSOFTVISUALSTUDIO11.0\VC\INCLUDE\SHARE.H
D:\USR\LOCAL\MICROSOFTVISUALSTUDIO11.0\VC\INCLUDE\SSTREAM
D:\USR\LOCAL\MICROSOFTVISUALSTUDIO11.0\VC\INCLUDE\STRING
D:\USR\LOCAL\MICROSOFTVISUALSTUDIO11.0\VC\INCLUDE\ITERATOR
D:\LIB\ZEROC\ICE-3.5.0\INCLUDE\ICE\INITIALIZE.H
D:\LIB\ZEROC\ICE-3.5.0\INCLUDE\ICE\COMMUNICATORF.H
D:\LIB\ZEROC\ICE-3.5.0\INCLUDE\ICE\PROXYF.H
D:\LIB\ZEROC\ICE-3.5.0\INCLUDE\ICEUTIL\SHARED.H
D:\LIB\ZEROC\ICE-3.5.0\INCLUDE\ICE\CONFIG.H
D:\USR\LOCAL\MICROSOFTVISUALSTUDIO11.0\VC\INCLUDE\VECTOR
D:\USR\LOCAL\MICROSOFTVISUALSTUDIO11.0\VC\INCLUDE\MAP
D:\USR\LOCAL\MICROSOFTVISUALSTUDIO11.0\VC\INCLUDE\XTREE
D:\USR\LOCAL\MICROSOFTVISUALSTUDIO11.0\VC\INCLUDE\PROCESS.H
D:\LIB\ZEROC\ICE-3.5.0\INCLUDE\ICE\PROXYHANDLE.H
D:\LIB\ZEROC\ICE-3.5.0\INCLUDE\ICEUTIL\HANDLE.H
D:\LIB\ZEROC\ICE-3.5.0\INCLUDE\ICEUTIL\EXCEPTION.H
D:\USR\LOCAL\MICROSOFTVISUALSTUDIO11.0\VC\INCLUDE\ALGORITHM
D:\LIB\ZEROC\ICE-3.5.0\INCLUDE\ICE\OBJECTF.H
D:\LIB\ZEROC\ICE-3.5.0\INCLUDE\ICE\HANDLE.H
D:\LIB\ZEROC\ICE-3.5.0\INCLUDE\ICE\EXCEPTION.H
D:\LIB\ZEROC\ICE-3.5.0\INCLUDE\ICE\FORMAT.H
D:\LIB\ZEROC\ICE-3.5.0\INCLUDE\ICE\STREAMF.H
D:\LIB\ZEROC\ICE-3.5.0\INCLUDE\ICE\LOCALOBJECT.H
D:\LIB\ZEROC\ICE-3.5.0\INCLUDE\ICE\LOCALOBJECTF.H
D:\LIB\ZEROC\ICE-3.5.0\INCLUDE\ICE\STREAMHELPERS.H
D:\LIB\ZEROC\ICE-3.5.0\INCLUDE\ICEUTIL\SCOPEDARRAY.H
D:\LIB\ZEROC\ICE-3.5.0\INCLUDE\ICEUTIL\ITERATOR.H
D:\LIB\ZEROC\ICE-3.5.0\INCLUDE\ICEUTIL\OPTIONAL.H
D:\LIB\ZEROC\ICE-3.5.0\INCLUDE\ICE\UNDEFSYSMACROS.H
D:\LIB\ZEROC\ICE-3.5.0\INCLUDE\ICE\PROPERTIESF.H
D:\LIB\ZEROC\ICE-3.5.0\INCLUDE\ICE\INSTANCEF.H
D:\LIB\ZEROC\ICE-3.5.0\INCLUDE\ICE\LOGGERF.H
D:\LIB\ZEROC\ICE-3.5.0\INCLUDE\ICE\STATSF.H
D:\LIB\ZEROC\ICE-3.5.0\INCLUDE\ICE\INSTRUMENTATIONF.H
D:\LIB\ZEROC\ICE-3.5.0\INCLUDE\ICE\DISPATCHER.H
D:\LIB\ZEROC\ICE-3.5.0\INCLUDE\ICE\CONNECTIONF.H
D:\USR\LOCAL\MICROSOFTVISUALSTUDIO11.0\VC\INCLUDE\FUNCTIONAL
D:\USR\LOCAL\MICROSOFTVISUALSTUDIO11.0\VC\INCLUDE\XFUNCTIONAL
D:\USR\LOCAL\MICROSOFTVISUALSTUDIO11.0\VC\INCLUDE\TUPLE
D:\LIB\ZEROC\ICE-3.5.0\INCLUDE\ICE\STRINGCONVERTER.H
D:\LIB\ZEROC\ICE-3.5.0\INCLUDE\ICE\PLUGIN.H
D:\LIB\ZEROC\ICE-3.5.0\INCLUDE\ICE\BUILTINSEQUENCES.H
D:\LIB\ZEROC\ICE-3.5.0\INCLUDE\ICEUTIL\UNICODE.H
D:\LIB\ZEROC\ICE-3.5.0\INCLUDE\ICE\FACTORYTABLE.H
D:\LIB\ZEROC\ICE-3.5.0\INCLUDE\ICEUTIL\MUTEX.H
D:\LIB\ZEROC\ICE-3.5.0\INCLUDE\ICEUTIL\LOCK.H
D:\LIB\ZEROC\ICE-3.5.0\INCLUDE\ICEUTIL\THREADEXCEPTION.H
D:\LIB\ZEROC\ICE-3.5.0\INCLUDE\ICEUTIL\TIME.H
D:\LIB\ZEROC\ICE-3.5.0\INCLUDE\ICEUTIL\MUTEXPROTOCOL.H
D:\LIB\ZEROC\ICE-3.5.0\INCLUDE\ICE\USEREXCEPTIONFACTORY.H
D:\LIB\ZEROC\ICE-3.5.0\INCLUDE\ICE\OBJECTFACTORYF.H
D:\LIB\ZEROC\ICE-3.5.0\INCLUDE\ICE\VERSION.H
D:\LIB\ZEROC\ICE-3.5.0\INCLUDE\ICE\LOCALEXCEPTION.H
D:\LIB\ZEROC\ICE-3.5.0\INCLUDE\ICE\IDENTITY.H
D:\LIB\ZEROC\ICE-3.5.0\INCLUDE\ICE\PROPERTIES.H
D:\LIB\ZEROC\ICE-3.5.0\INCLUDE\ICE\PROXY.H
D:\LIB\ZEROC\ICE-3.5.0\INCLUDE\ICE\PROXYFACTORYF.H
D:\LIB\ZEROC\ICE-3.5.0\INCLUDE\ICE\CONNECTIONIF.H
D:\LIB\ZEROC\ICE-3.5.0\INCLUDE\ICE\REQUESTHANDLERF.H
D:\LIB\ZEROC\ICE-3.5.0\INCLUDE\ICE\ENDPOINTIF.H
D:\LIB\ZEROC\ICE-3.5.0\INCLUDE\ICE\ENDPOINTF.H
D:\LIB\ZEROC\ICE-3.5.0\INCLUDE\ICE\ENDPOINTTYPES.H
D:\LIB\ZEROC\ICE-3.5.0\INCLUDE\ICE\OBJECTADAPTERF.H
D:\LIB\ZEROC\ICE-3.5.0\INCLUDE\ICE\REFERENCEF.H
D:\LIB\ZEROC\ICE-3.5.0\INCLUDE\ICE\OUTGOINGASYNC.H
D:\LIB\ZEROC\ICE-3.5.0\INCLUDE\ICEUTIL\MONITOR.H
D:\LIB\ZEROC\ICE-3.5.0\INCLUDE\ICEUTIL\COND.H
D:\LIB\ZEROC\ICE-3.5.0\INCLUDE\ICEUTIL\TIMER.H
D:\LIB\ZEROC\ICE-3.5.0\INCLUDE\ICEUTIL\THREAD.H
D:\USR\LOCAL\MICROSOFTVISUALSTUDIO11.0\VC\INCLUDE\SET
D:\LIB\ZEROC\ICE-3.5.0\INCLUDE\ICEUTIL\UNIQUEPTR.H
D:\LIB\ZEROC\ICE-3.5.0\INCLUDE\ICE\OUTGOINGASYNCF.H
D:\LIB\ZEROC\ICE-3.5.0\INCLUDE\ICE\CURRENT.H
D:\LIB\ZEROC\ICE-3.5.0\INCLUDE\ICE\BASICSTREAM.H
D:\LIB\ZEROC\ICE-3.5.0\INCLUDE\ICE\OBJECT.H
D:\LIB\ZEROC\ICE-3.5.0\INCLUDE\ICE\GCSHARED.H
D:\LIB\ZEROC\ICE-3.5.0\INCLUDE\ICE\GCCOUNTMAP.H
D:\LIB\ZEROC\ICE-3.5.0\INCLUDE\ICE\INCOMINGASYNCF.H
D:\LIB\ZEROC\ICE-3.5.0\INCLUDE\ICE\OBJECTFACTORYMANAGERF.H
D:\LIB\ZEROC\ICE-3.5.0\INCLUDE\ICE\BUFFER.H
D:\LIB\ZEROC\ICE-3.5.0\INCLUDE\ICE\PROTOCOL.H
D:\LIB\ZEROC\ICE-3.5.0\INCLUDE\ICE\SLICEDDATAF.H
D:\LIB\ZEROC\ICE-3.5.0\INCLUDE\ICE\OBSERVERHELPER.H
D:\LIB\ZEROC\ICE-3.5.0\INCLUDE\ICE\INSTRUMENTATION.H
D:\LIB\ZEROC\ICE-3.5.0\INCLUDE\ICE\OUTGOING.H
D:\LIB\ZEROC\ICE-3.5.0\INCLUDE\ICE\INCOMING.H
D:\LIB\ZEROC\ICE-3.5.0\INCLUDE\ICE\SERVANTLOCATORF.H
D:\LIB\ZEROC\ICE-3.5.0\INCLUDE\ICE\SERVANTMANAGERF.H
D:\USR\LOCAL\MICROSOFTVISUALSTUDIO11.0\VC\INCLUDE\DEQUE
D:\LIB\ZEROC\ICE-3.5.0\INCLUDE\ICE\INCOMINGASYNC.H
D:\LIB\ZEROC\ICE-3.5.0\INCLUDE\ICE\DIRECT.H
D:\LIB\ZEROC\ICE-3.5.0\INCLUDE\ICE\LOGGER.H
D:\LIB\ZEROC\ICE-3.5.0\INCLUDE\ICE\LOGGERUTIL.H
D:\LIB\ZEROC\ICE-3.5.0\INCLUDE\ICE\STATS.H
D:\LIB\ZEROC\ICE-3.5.0\INCLUDE\ICE\COMMUNICATOR.H
D:\LIB\ZEROC\ICE-3.5.0\INCLUDE\ICE\ROUTERF.H
D:\LIB\ZEROC\ICE-3.5.0\INCLUDE\ICE\LOCATORF.H
D:\LIB\ZEROC\ICE-3.5.0\INCLUDE\ICE\PLUGINF.H
D:\LIB\ZEROC\ICE-3.5.0\INCLUDE\ICE\IMPLICITCONTEXTF.H
D:\LIB\ZEROC\ICE-3.5.0\INCLUDE\ICE\COMMUNICATORASYNC.H
D:\LIB\ZEROC\ICE-3.5.0\INCLUDE\ICE\OBJECTFACTORY.H
D:\LIB\ZEROC\ICE-3.5.0\INCLUDE\ICE\OBJECTADAPTER.H
D:\LIB\ZEROC\ICE-3.5.0\INCLUDE\ICE\FACETMAP.H
D:\LIB\ZEROC\ICE-3.5.0\INCLUDE\ICE\ENDPOINT.H
D:\LIB\ZEROC\ICE-3.5.0\INCLUDE\ICE\SERVANTLOCATOR.H
D:\LIB\ZEROC\ICE-3.5.0\INCLUDE\ICE\SLICEDDATA.H
D:\LIB\ZEROC\ICE-3.5.0\INCLUDE\ICE\PROCESS.H
D:\LIB\ZEROC\ICE-3.5.0\INCLUDE\ICE\APPLICATION.H
D:\LIB\ZEROC\ICE-3.5.0\INCLUDE\ICE\CONNECTION.H
D:\LIB\ZEROC\ICE-3.5.0\INCLUDE\ICE\CONNECTIONASYNC.H
D:\LIB\ZEROC\ICE-3.5.0\INCLUDE\ICE\FUNCTIONAL.H
D:\LIB\ZEROC\ICE-3.5.0\INCLUDE\ICEUTIL\FUNCTIONAL.H
D:\LIB\ZEROC\ICE-3.5.0\INCLUDE\ICE\STREAM.H
D:\LIB\ZEROC\ICE-3.5.0\INCLUDE\ICE\IMPLICITCONTEXT.H
D:\LIB\ZEROC\ICE-3.5.0\INCLUDE\ICE\LOCATOR.H
D:\LIB\ZEROC\ICE-3.5.0\INCLUDE\ICE\FACTORYTABLEINIT.H
D:\LIB\ZEROC\ICE-3.5.0\INCLUDE\ICE\PROCESSF.H
D:\LIB\ZEROC\ICE-3.5.0\INCLUDE\ICE\ROUTER.H
D:\LIB\ZEROC\ICE-3.5.0\INCLUDE\ICE\DISPATCHINTERCEPTOR.H
D:\LIB\ZEROC\ICE-3.5.0\INCLUDE\ICE\PROPERTIESADMIN.H
D:\LIB\ZEROC\ICE-3.5.0\INCLUDE\ICE\METRICS.H
D:\LIB\ZEROC\ICE-3.5.0\INCLUDE\ICE\SERVICE.H
D:\VAR\CODE\PROJECT\ICE\DEMO_0.1\GENERATED\CLIENT\PRINTER.H
D:\USR\LOCAL\MICROSOFTVISUALSTUDIO11.0\VC\INCLUDE\TIME.H
D:\USR\LOCAL\MICROSOFTVISUALSTUDIO11.0\VC\INCLUDE\TIME.INL
C:\PROGRAM FILES (X86)\WINDOWS KITS\8.0\INCLUDE\UM\WINSOCK2.H
C:\PROGRAM FILES (X86)\WINDOWS KITS\8.0\INCLUDE\SHARED\WS2DEF.H
C:\PROGRAM FILES (X86)\WINDOWS KITS\8.0\INCLUDE\SHARED\INADDR.H
C:\PROGRAM FILES (X86)\WINDOWS KITS\8.0\INCLUDE\SHARED\QOS.H
D:\USR\LOCAL\MYSQL-5.6.12\INCLUDE\MYSQL.H
D:\USR\LOCAL\MICROSOFTVISUALSTUDIO11.0\VC\INCLUDE\SYS\TYPES.H
D:\USR\LOCAL\MYSQL-5.6.12\INCLUDE\MYSQL_VERSION.H
D:\USR\LOCAL\MYSQL-5.6.12\INCLUDE\MYSQL_COM.H
D:\USR\LOCAL\MYSQL-5.6.12\INCLUDE\MYSQL_TIME.H
D:\USR\LOCAL\MYSQL-5.6.12\INCLUDE\MY_LIST.H
D:\USR\LOCAL\MYSQL-5.6.12\INCLUDE\TYPELIB.H
D:\USR\LOCAL\MYSQL-5.6.12\INCLUDE\MY_ALLOC.H
